%!PS-Adobe-3.0 EPSF-3.0
%%Title: classification-accuracy-usps-all.eps
%%Creator: matplotlib version 1.4.3, http://matplotlib.org/
%%CreationDate: Mon May 23 04:31:50 2016
%%Orientation: portrait
%%BoundingBox: -54 180 666 612
%%EndComments
%%BeginProlog
/mpldict 8 dict def
mpldict begin
/m { moveto } bind def
/l { lineto } bind def
/r { rlineto } bind def
/c { curveto } bind def
/cl { closepath } bind def
/box {
m
1 index 0 r
0 exch r
neg 0 r
cl
} bind def
/clipbox {
box
clip
newpath
} bind def
%!PS-Adobe-3.0 Resource-Font
%%Title: Bitstream Vera Sans
%%Copyright: Copyright (c) 2003 by Bitstream, Inc. All Rights Reserved.
%%Creator: Converted from TrueType to type 3 by PPR
25 dict begin
/_d{bind def}bind def
/_m{moveto}_d
/_l{lineto}_d
/_cl{closepath eofill}_d
/_c{curveto}_d
/_sc{7 -1 roll{setcachedevice}{pop pop pop pop pop pop}ifelse}_d
/_e{exec}_d
/FontName /BitstreamVeraSans-Roman def
/PaintType 0 def
/FontMatrix[.001 0 0 .001 0 0]def
/FontBBox[-183 -236 1287 928]def
/FontType 3 def
/Encoding [ /space /percent /hyphen /period /zero /one /two /three /four /five /six /eight /nine /A /B /C /D /E /F /K /L /M /O /P /R /S /T /U /V /W /a /b /c /d /e /f /g /i /l /m /n /o /p /r /s /t /u /v /y ] def
/FontInfo 10 dict dup begin
/FamilyName (Bitstream Vera Sans) def
/FullName (Bitstream Vera Sans) def
/Notice (Copyright (c) 2003 by Bitstream, Inc. All Rights Reserved. Bitstream Vera is a trademark of Bitstream, Inc.) def
/Weight (Roman) def
/Version (Release 1.10) def
/ItalicAngle 0.0 def
/isFixedPitch false def
/UnderlinePosition -213 def
/UnderlineThickness 143 def
end readonly def
/CharStrings 49 dict dup begin
/space{318 0 0 0 0 0 _sc
}_d
/percent{{950 0 55 -13 895 742 _sc
727 321 _m
699 321 676 309 660 285 _c
644 261 636 227 636 184 _c
636 142 644 108 660 84 _c
676 60 699 48 727 48 _c
755 48 777 60 793 84 _c
809 108 817 142 817 184 _c
817 226 809 260 793 284 _c
777 308 755 321 727 321 _c
727 383 _m
778 383 819 365 849 329 _c
879 293 895 244 895 184 _c
895 123 879 75 849 40 _c
819 4 778 -13 727 -13 _c
}_e{675 -13 633 4 603 40 _c
573 75 558 123 558 184 _c
558 245 573 293 603 329 _c
633 365 675 383 727 383 _c
223 680 _m
195 680 173 667 157 643 _c
141 619 133 586 133 544 _c
133 500 141 467 157 443 _c
173 419 195 407 223 407 _c
251 407 274 419 290 443 _c
306 467 314 500 314 544 _c
314 586 305 619 289 643 _c
273 667 251 680 223 680 _c
664 742 _m
742 742 _l
286 -13 _l
}_e{208 -13 _l
664 742 _l
223 742 _m
274 742 315 724 346 688 _c
376 652 392 604 392 544 _c
392 482 376 434 346 398 _c
316 362 275 345 223 345 _c
171 345 130 362 100 398 _c
70 434 55 482 55 544 _c
55 604 70 652 100 688 _c
130 724 171 742 223 742 _c
_cl}_e}_d
/hyphen{361 0 49 234 312 314 _sc
49 314 _m
312 314 _l
312 234 _l
49 234 _l
49 314 _l
_cl}_d
/period{318 0 107 0 210 124 _sc
107 124 _m
210 124 _l
210 0 _l
107 0 _l
107 124 _l
_cl}_d
/zero{636 0 66 -13 570 742 _sc
318 664 _m
267 664 229 639 203 589 _c
177 539 165 464 165 364 _c
165 264 177 189 203 139 _c
229 89 267 64 318 64 _c
369 64 407 89 433 139 _c
458 189 471 264 471 364 _c
471 464 458 539 433 589 _c
407 639 369 664 318 664 _c
318 742 _m
399 742 461 709 505 645 _c
548 580 570 486 570 364 _c
570 241 548 147 505 83 _c
461 19 399 -13 318 -13 _c
236 -13 173 19 130 83 _c
87 147 66 241 66 364 _c
66 486 87 580 130 645 _c
173 709 236 742 318 742 _c
_cl}_d
/one{636 0 110 0 544 729 _sc
124 83 _m
285 83 _l
285 639 _l
110 604 _l
110 694 _l
284 729 _l
383 729 _l
383 83 _l
544 83 _l
544 0 _l
124 0 _l
124 83 _l
_cl}_d
/two{{636 0 73 0 536 742 _sc
192 83 _m
536 83 _l
536 0 _l
73 0 _l
73 83 _l
110 121 161 173 226 239 _c
290 304 331 346 348 365 _c
380 400 402 430 414 455 _c
426 479 433 504 433 528 _c
433 566 419 598 392 622 _c
365 646 330 659 286 659 _c
255 659 222 653 188 643 _c
154 632 117 616 78 594 _c
78 694 _l
118 710 155 722 189 730 _c
223 738 255 742 284 742 _c
}_e{359 742 419 723 464 685 _c
509 647 532 597 532 534 _c
532 504 526 475 515 449 _c
504 422 484 390 454 354 _c
446 344 420 317 376 272 _c
332 227 271 164 192 83 _c
_cl}_e}_d
/three{{636 0 76 -13 556 742 _sc
406 393 _m
453 383 490 362 516 330 _c
542 298 556 258 556 212 _c
556 140 531 84 482 45 _c
432 6 362 -13 271 -13 _c
240 -13 208 -10 176 -4 _c
144 1 110 10 76 22 _c
76 117 _l
103 101 133 89 166 81 _c
198 73 232 69 268 69 _c
330 69 377 81 409 105 _c
441 129 458 165 458 212 _c
458 254 443 288 413 312 _c
383 336 341 349 287 349 _c
}_e{202 349 _l
202 430 _l
291 430 _l
339 430 376 439 402 459 _c
428 478 441 506 441 543 _c
441 580 427 609 401 629 _c
374 649 336 659 287 659 _c
260 659 231 656 200 650 _c
169 644 135 635 98 623 _c
98 711 _l
135 721 170 729 203 734 _c
235 739 266 742 296 742 _c
370 742 429 725 473 691 _c
517 657 539 611 539 553 _c
539 513 527 479 504 451 _c
481 423 448 403 406 393 _c
_cl}_e}_d
/four{636 0 49 0 580 729 _sc
378 643 _m
129 254 _l
378 254 _l
378 643 _l
352 729 _m
476 729 _l
476 254 _l
580 254 _l
580 172 _l
476 172 _l
476 0 _l
378 0 _l
378 172 _l
49 172 _l
49 267 _l
352 729 _l
_cl}_d
/five{{636 0 77 -13 549 729 _sc
108 729 _m
495 729 _l
495 646 _l
198 646 _l
198 467 _l
212 472 227 476 241 478 _c
255 480 270 482 284 482 _c
365 482 429 459 477 415 _c
525 370 549 310 549 234 _c
549 155 524 94 475 51 _c
426 8 357 -13 269 -13 _c
238 -13 207 -10 175 -6 _c
143 -1 111 6 77 17 _c
77 116 _l
106 100 136 88 168 80 _c
199 72 232 69 267 69 _c
}_e{323 69 368 83 401 113 _c
433 143 450 183 450 234 _c
450 284 433 324 401 354 _c
368 384 323 399 267 399 _c
241 399 214 396 188 390 _c
162 384 135 375 108 363 _c
108 729 _l
_cl}_e}_d
/six{{636 0 70 -13 573 742 _sc
330 404 _m
286 404 251 388 225 358 _c
199 328 186 286 186 234 _c
186 181 199 139 225 109 _c
251 79 286 64 330 64 _c
374 64 409 79 435 109 _c
461 139 474 181 474 234 _c
474 286 461 328 435 358 _c
409 388 374 404 330 404 _c
526 713 _m
526 623 _l
501 635 476 644 451 650 _c
425 656 400 659 376 659 _c
310 659 260 637 226 593 _c
}_e{192 549 172 482 168 394 _c
187 422 211 444 240 459 _c
269 474 301 482 336 482 _c
409 482 467 459 509 415 _c
551 371 573 310 573 234 _c
573 159 550 99 506 54 _c
462 9 403 -13 330 -13 _c
246 -13 181 19 137 83 _c
92 147 70 241 70 364 _c
70 479 97 571 152 639 _c
206 707 280 742 372 742 _c
396 742 421 739 447 735 _c
472 730 498 723 526 713 _c
_cl}_e}_d
/eight{{636 0 68 -13 568 742 _sc
318 346 _m
271 346 234 333 207 308 _c
180 283 167 249 167 205 _c
167 161 180 126 207 101 _c
234 76 271 64 318 64 _c
364 64 401 76 428 102 _c
455 127 469 161 469 205 _c
469 249 455 283 429 308 _c
402 333 365 346 318 346 _c
219 388 _m
177 398 144 418 120 447 _c
96 476 85 511 85 553 _c
85 611 105 657 147 691 _c
188 725 245 742 318 742 _c
}_e{390 742 447 725 489 691 _c
530 657 551 611 551 553 _c
551 511 539 476 515 447 _c
491 418 459 398 417 388 _c
464 377 501 355 528 323 _c
554 291 568 251 568 205 _c
568 134 546 80 503 43 _c
459 5 398 -13 318 -13 _c
237 -13 175 5 132 43 _c
89 80 68 134 68 205 _c
68 251 81 291 108 323 _c
134 355 171 377 219 388 _c
183 544 _m
183 506 194 476 218 455 _c
}_e{242 434 275 424 318 424 _c
360 424 393 434 417 455 _c
441 476 453 506 453 544 _c
453 582 441 611 417 632 _c
393 653 360 664 318 664 _c
275 664 242 653 218 632 _c
194 611 183 582 183 544 _c
_cl}_e}_d
/nine{{636 0 63 -13 566 742 _sc
110 15 _m
110 105 _l
134 93 159 84 185 78 _c
210 72 235 69 260 69 _c
324 69 374 90 408 134 _c
442 178 462 244 468 334 _c
448 306 424 284 396 269 _c
367 254 335 247 300 247 _c
226 247 168 269 126 313 _c
84 357 63 417 63 494 _c
63 568 85 628 129 674 _c
173 719 232 742 306 742 _c
390 742 455 709 499 645 _c
543 580 566 486 566 364 _c
}_e{566 248 538 157 484 89 _c
429 21 356 -13 264 -13 _c
239 -13 214 -10 189 -6 _c
163 -2 137 5 110 15 _c
306 324 _m
350 324 385 339 411 369 _c
437 399 450 441 450 494 _c
450 546 437 588 411 618 _c
385 648 350 664 306 664 _c
262 664 227 648 201 618 _c
175 588 162 546 162 494 _c
162 441 175 399 201 369 _c
227 339 262 324 306 324 _c
_cl}_e}_d
/A{684 0 8 0 676 729 _sc
342 632 _m
208 269 _l
476 269 _l
342 632 _l
286 729 _m
398 729 _l
676 0 _l
573 0 _l
507 187 _l
178 187 _l
112 0 _l
8 0 _l
286 729 _l
_cl}_d
/B{{686 0 98 0 615 729 _sc
197 348 _m
197 81 _l
355 81 _l
408 81 447 92 473 114 _c
498 136 511 169 511 215 _c
511 260 498 293 473 315 _c
447 337 408 348 355 348 _c
197 348 _l
197 648 _m
197 428 _l
343 428 _l
391 428 426 437 450 455 _c
474 473 486 500 486 538 _c
486 574 474 602 450 620 _c
426 638 391 648 343 648 _c
197 648 _l
98 729 _m
350 729 _l
}_e{425 729 483 713 524 682 _c
564 650 585 606 585 549 _c
585 504 574 468 553 442 _c
532 416 502 399 462 393 _c
510 382 548 360 575 327 _c
601 294 615 253 615 204 _c
615 138 592 88 548 53 _c
504 17 441 0 360 0 _c
98 0 _l
98 729 _l
_cl}_e}_d
/C{{698 0 56 -13 644 742 _sc
644 673 _m
644 569 _l
610 599 575 622 537 638 _c
499 653 460 661 418 661 _c
334 661 270 635 226 584 _c
182 533 160 460 160 364 _c
160 268 182 194 226 143 _c
270 92 334 67 418 67 _c
460 67 499 74 537 90 _c
575 105 610 128 644 159 _c
644 56 _l
609 32 572 15 534 4 _c
496 -7 455 -13 412 -13 _c
302 -13 215 20 151 87 _c
}_e{87 154 56 246 56 364 _c
56 481 87 573 151 641 _c
215 708 302 742 412 742 _c
456 742 497 736 535 725 _c
573 713 610 696 644 673 _c
_cl}_e}_d
/D{770 0 98 0 711 729 _sc
197 648 _m
197 81 _l
316 81 _l
416 81 490 103 537 149 _c
583 195 607 267 607 365 _c
607 463 583 534 537 580 _c
490 625 416 648 316 648 _c
197 648 _l
98 729 _m
301 729 _l
442 729 546 699 612 641 _c
678 582 711 490 711 365 _c
711 239 677 147 611 88 _c
545 29 441 0 301 0 _c
98 0 _l
98 729 _l
_cl}_d
/E{632 0 98 0 568 729 _sc
98 729 _m
559 729 _l
559 646 _l
197 646 _l
197 430 _l
544 430 _l
544 347 _l
197 347 _l
197 83 _l
568 83 _l
568 0 _l
98 0 _l
98 729 _l
_cl}_d
/F{575 0 98 0 517 729 _sc
98 729 _m
517 729 _l
517 646 _l
197 646 _l
197 431 _l
486 431 _l
486 348 _l
197 348 _l
197 0 _l
98 0 _l
98 729 _l
_cl}_d
/K{656 0 98 0 677 729 _sc
98 729 _m
197 729 _l
197 421 _l
524 729 _l
651 729 _l
289 389 _l
677 0 _l
547 0 _l
197 351 _l
197 0 _l
98 0 _l
98 729 _l
_cl}_d
/L{557 0 98 0 552 729 _sc
98 729 _m
197 729 _l
197 83 _l
552 83 _l
552 0 _l
98 0 _l
98 729 _l
_cl}_d
/M{863 0 98 0 765 729 _sc
98 729 _m
245 729 _l
431 233 _l
618 729 _l
765 729 _l
765 0 _l
669 0 _l
669 640 _l
481 140 _l
382 140 _l
194 640 _l
194 0 _l
98 0 _l
98 729 _l
_cl}_d
/O{787 0 56 -13 731 742 _sc
394 662 _m
322 662 265 635 223 582 _c
181 528 160 456 160 364 _c
160 272 181 199 223 146 _c
265 92 322 66 394 66 _c
465 66 522 92 564 146 _c
606 199 627 272 627 364 _c
627 456 606 528 564 582 _c
522 635 465 662 394 662 _c
394 742 _m
496 742 577 707 639 639 _c
700 571 731 479 731 364 _c
731 248 700 157 639 89 _c
577 21 496 -13 394 -13 _c
291 -13 209 21 148 89 _c
86 157 56 248 56 364 _c
56 479 86 571 148 639 _c
209 707 291 742 394 742 _c
_cl}_d
/P{603 0 98 0 569 729 _sc
197 648 _m
197 374 _l
321 374 _l
367 374 402 385 427 409 _c
452 433 465 467 465 511 _c
465 555 452 588 427 612 _c
402 636 367 648 321 648 _c
197 648 _l
98 729 _m
321 729 _l
402 729 464 710 506 673 _c
548 636 569 582 569 511 _c
569 439 548 384 506 348 _c
464 311 402 293 321 293 _c
197 293 _l
197 0 _l
98 0 _l
98 729 _l
_cl}_d
/R{{695 0 98 0 666 729 _sc
444 342 _m
465 334 486 319 506 296 _c
526 272 546 240 566 199 _c
666 0 _l
560 0 _l
467 187 _l
443 235 419 268 397 284 _c
374 300 343 308 304 308 _c
197 308 _l
197 0 _l
98 0 _l
98 729 _l
321 729 _l
404 729 466 711 507 677 _c
548 642 569 589 569 519 _c
569 473 558 434 537 404 _c
515 374 484 353 444 342 _c
197 648 _m
197 389 _l
321 389 _l
}_e{368 389 404 400 428 422 _c
452 444 465 476 465 519 _c
465 561 452 593 428 615 _c
404 637 368 648 321 648 _c
197 648 _l
_cl}_e}_d
/S{{635 0 66 -13 579 742 _sc
535 705 _m
535 609 _l
497 627 462 640 429 649 _c
395 657 363 662 333 662 _c
279 662 237 651 208 631 _c
179 610 165 580 165 542 _c
165 510 174 485 194 469 _c
213 452 250 439 304 429 _c
364 417 _l
437 403 491 378 526 343 _c
561 307 579 260 579 201 _c
579 130 555 77 508 41 _c
460 5 391 -13 300 -13 _c
265 -13 228 -9 189 -2 _c
}_e{150 5 110 16 69 32 _c
69 134 _l
109 111 148 94 186 83 _c
224 71 262 66 300 66 _c
356 66 399 77 430 99 _c
460 121 476 152 476 194 _c
476 230 465 258 443 278 _c
421 298 385 313 335 323 _c
275 335 _l
201 349 148 372 115 404 _c
82 435 66 478 66 534 _c
66 598 88 649 134 686 _c
179 723 242 742 322 742 _c
356 742 390 739 426 733 _c
461 727 497 717 535 705 _c
}_e{_cl}_e}_d
/T{611 0 -2 0 614 729 _sc
-2 729 _m
614 729 _l
614 646 _l
355 646 _l
355 0 _l
256 0 _l
256 646 _l
-2 646 _l
-2 729 _l
_cl}_d
/U{732 0 87 -13 645 729 _sc
87 729 _m
186 729 _l
186 286 _l
186 208 200 151 228 117 _c
256 83 302 66 366 66 _c
429 66 475 83 503 117 _c
531 151 546 208 546 286 _c
546 729 _l
645 729 _l
645 274 _l
645 178 621 107 574 59 _c
527 11 458 -13 366 -13 _c
274 -13 204 11 157 59 _c
110 107 87 178 87 274 _c
87 729 _l
_cl}_d
/V{684 0 8 0 676 729 _sc
286 0 _m
8 729 _l
111 729 _l
342 115 _l
573 729 _l
676 729 _l
398 0 _l
286 0 _l
_cl}_d
/W{989 0 33 0 956 729 _sc
33 729 _m
133 729 _l
286 113 _l
439 729 _l
550 729 _l
703 113 _l
856 729 _l
956 729 _l
773 0 _l
649 0 _l
495 633 _l
340 0 _l
216 0 _l
33 729 _l
_cl}_d
/a{{613 0 60 -13 522 560 _sc
343 275 _m
270 275 220 266 192 250 _c
164 233 150 205 150 165 _c
150 133 160 107 181 89 _c
202 70 231 61 267 61 _c
317 61 357 78 387 114 _c
417 149 432 196 432 255 _c
432 275 _l
343 275 _l
522 312 _m
522 0 _l
432 0 _l
432 83 _l
411 49 385 25 355 10 _c
325 -5 287 -13 243 -13 _c
187 -13 142 2 109 33 _c
76 64 60 106 60 159 _c
}_e{60 220 80 266 122 298 _c
163 329 224 345 306 345 _c
432 345 _l
432 354 _l
432 395 418 427 391 450 _c
364 472 326 484 277 484 _c
245 484 215 480 185 472 _c
155 464 127 453 100 439 _c
100 522 _l
132 534 164 544 195 550 _c
226 556 256 560 286 560 _c
365 560 424 539 463 498 _c
502 457 522 395 522 312 _c
_cl}_e}_d
/b{{635 0 91 -13 580 760 _sc
487 273 _m
487 339 473 390 446 428 _c
418 466 381 485 334 485 _c
286 485 249 466 222 428 _c
194 390 181 339 181 273 _c
181 207 194 155 222 117 _c
249 79 286 61 334 61 _c
381 61 418 79 446 117 _c
473 155 487 207 487 273 _c
181 464 _m
199 496 223 520 252 536 _c
281 552 316 560 356 560 _c
422 560 476 533 518 481 _c
559 428 580 359 580 273 _c
}_e{580 187 559 117 518 65 _c
476 13 422 -13 356 -13 _c
316 -13 281 -5 252 10 _c
223 25 199 49 181 82 _c
181 0 _l
91 0 _l
91 760 _l
181 760 _l
181 464 _l
_cl}_e}_d
/c{{550 0 55 -13 488 560 _sc
488 526 _m
488 442 _l
462 456 437 466 411 473 _c
385 480 360 484 334 484 _c
276 484 230 465 198 428 _c
166 391 150 339 150 273 _c
150 206 166 154 198 117 _c
230 80 276 62 334 62 _c
360 62 385 65 411 72 _c
437 79 462 90 488 104 _c
488 21 _l
462 9 436 0 410 -5 _c
383 -10 354 -13 324 -13 _c
242 -13 176 12 128 64 _c
}_e{79 115 55 185 55 273 _c
55 362 79 432 128 483 _c
177 534 244 560 330 560 _c
358 560 385 557 411 551 _c
437 545 463 537 488 526 _c
_cl}_e}_d
/d{{635 0 55 -13 544 760 _sc
454 464 _m
454 760 _l
544 760 _l
544 0 _l
454 0 _l
454 82 _l
435 49 411 25 382 10 _c
353 -5 319 -13 279 -13 _c
213 -13 159 13 117 65 _c
75 117 55 187 55 273 _c
55 359 75 428 117 481 _c
159 533 213 560 279 560 _c
319 560 353 552 382 536 _c
411 520 435 496 454 464 _c
148 273 _m
148 207 161 155 188 117 _c
215 79 253 61 301 61 _c
}_e{348 61 385 79 413 117 _c
440 155 454 207 454 273 _c
454 339 440 390 413 428 _c
385 466 348 485 301 485 _c
253 485 215 466 188 428 _c
161 390 148 339 148 273 _c
_cl}_e}_d
/e{{615 0 55 -13 562 560 _sc
562 296 _m
562 252 _l
149 252 _l
153 190 171 142 205 110 _c
238 78 284 62 344 62 _c
378 62 412 66 444 74 _c
476 82 509 95 541 113 _c
541 28 _l
509 14 476 3 442 -3 _c
408 -9 373 -13 339 -13 _c
251 -13 182 12 131 62 _c
80 112 55 181 55 268 _c
55 357 79 428 127 481 _c
175 533 241 560 323 560 _c
397 560 455 536 498 489 _c
}_e{540 441 562 377 562 296 _c
472 322 _m
471 371 457 410 431 440 _c
404 469 368 484 324 484 _c
274 484 234 469 204 441 _c
174 413 156 373 152 322 _c
472 322 _l
_cl}_e}_d
/f{352 0 23 0 371 760 _sc
371 760 _m
371 685 _l
285 685 _l
253 685 230 678 218 665 _c
205 652 199 629 199 595 _c
199 547 _l
347 547 _l
347 477 _l
199 477 _l
199 0 _l
109 0 _l
109 477 _l
23 477 _l
23 547 _l
109 547 _l
109 585 _l
109 645 123 690 151 718 _c
179 746 224 760 286 760 _c
371 760 _l
_cl}_d
/g{{635 0 55 -207 544 560 _sc
454 280 _m
454 344 440 395 414 431 _c
387 467 349 485 301 485 _c
253 485 215 467 188 431 _c
161 395 148 344 148 280 _c
148 215 161 165 188 129 _c
215 93 253 75 301 75 _c
349 75 387 93 414 129 _c
440 165 454 215 454 280 _c
544 68 _m
544 -24 523 -93 482 -139 _c
440 -184 377 -207 292 -207 _c
260 -207 231 -204 203 -200 _c
175 -195 147 -188 121 -178 _c
}_e{121 -91 _l
147 -105 173 -115 199 -122 _c
225 -129 251 -133 278 -133 _c
336 -133 380 -117 410 -87 _c
439 -56 454 -10 454 52 _c
454 96 _l
435 64 411 40 382 24 _c
353 8 319 0 279 0 _c
211 0 157 25 116 76 _c
75 127 55 195 55 280 _c
55 364 75 432 116 483 _c
157 534 211 560 279 560 _c
319 560 353 552 382 536 _c
411 520 435 496 454 464 _c
454 547 _l
544 547 _l
}_e{544 68 _l
_cl}_e}_d
/i{278 0 94 0 184 760 _sc
94 547 _m
184 547 _l
184 0 _l
94 0 _l
94 547 _l
94 760 _m
184 760 _l
184 646 _l
94 646 _l
94 760 _l
_cl}_d
/l{278 0 94 0 184 760 _sc
94 760 _m
184 760 _l
184 0 _l
94 0 _l
94 760 _l
_cl}_d
/m{{974 0 91 0 889 560 _sc
520 442 _m
542 482 569 511 600 531 _c
631 550 668 560 711 560 _c
767 560 811 540 842 500 _c
873 460 889 403 889 330 _c
889 0 _l
799 0 _l
799 327 _l
799 379 789 418 771 444 _c
752 469 724 482 686 482 _c
639 482 602 466 575 435 _c
548 404 535 362 535 309 _c
535 0 _l
445 0 _l
445 327 _l
445 379 435 418 417 444 _c
398 469 369 482 331 482 _c
}_e{285 482 248 466 221 435 _c
194 404 181 362 181 309 _c
181 0 _l
91 0 _l
91 547 _l
181 547 _l
181 462 _l
201 495 226 520 255 536 _c
283 552 317 560 357 560 _c
397 560 430 550 458 530 _c
486 510 506 480 520 442 _c
_cl}_e}_d
/n{634 0 91 0 549 560 _sc
549 330 _m
549 0 _l
459 0 _l
459 327 _l
459 379 448 417 428 443 _c
408 469 378 482 338 482 _c
289 482 251 466 223 435 _c
195 404 181 362 181 309 _c
181 0 _l
91 0 _l
91 547 _l
181 547 _l
181 462 _l
202 494 227 519 257 535 _c
286 551 320 560 358 560 _c
420 560 468 540 500 501 _c
532 462 549 405 549 330 _c
_cl}_d
/o{612 0 55 -13 557 560 _sc
306 484 _m
258 484 220 465 192 427 _c
164 389 150 338 150 273 _c
150 207 163 156 191 118 _c
219 80 257 62 306 62 _c
354 62 392 80 420 118 _c
448 156 462 207 462 273 _c
462 337 448 389 420 427 _c
392 465 354 484 306 484 _c
306 560 _m
384 560 445 534 490 484 _c
534 433 557 363 557 273 _c
557 183 534 113 490 63 _c
445 12 384 -13 306 -13 _c
227 -13 165 12 121 63 _c
77 113 55 183 55 273 _c
55 363 77 433 121 484 _c
165 534 227 560 306 560 _c
_cl}_d
/p{{635 0 91 -207 580 560 _sc
181 82 _m
181 -207 _l
91 -207 _l
91 547 _l
181 547 _l
181 464 _l
199 496 223 520 252 536 _c
281 552 316 560 356 560 _c
422 560 476 533 518 481 _c
559 428 580 359 580 273 _c
580 187 559 117 518 65 _c
476 13 422 -13 356 -13 _c
316 -13 281 -5 252 10 _c
223 25 199 49 181 82 _c
487 273 _m
487 339 473 390 446 428 _c
418 466 381 485 334 485 _c
}_e{286 485 249 466 222 428 _c
194 390 181 339 181 273 _c
181 207 194 155 222 117 _c
249 79 286 61 334 61 _c
381 61 418 79 446 117 _c
473 155 487 207 487 273 _c
_cl}_e}_d
/r{411 0 91 0 411 560 _sc
411 463 _m
401 469 390 473 378 476 _c
366 478 353 480 339 480 _c
288 480 249 463 222 430 _c
194 397 181 350 181 288 _c
181 0 _l
91 0 _l
91 547 _l
181 547 _l
181 462 _l
199 495 224 520 254 536 _c
284 552 321 560 365 560 _c
371 560 378 559 386 559 _c
393 558 401 557 411 555 _c
411 463 _l
_cl}_d
/s{{521 0 54 -13 472 560 _sc
443 531 _m
443 446 _l
417 458 391 468 364 475 _c
336 481 308 485 279 485 _c
234 485 200 478 178 464 _c
156 450 145 430 145 403 _c
145 382 153 366 169 354 _c
185 342 217 330 265 320 _c
296 313 _l
360 299 405 279 432 255 _c
458 230 472 195 472 151 _c
472 100 452 60 412 31 _c
372 1 316 -13 246 -13 _c
216 -13 186 -10 154 -5 _c
}_e{122 0 89 8 54 20 _c
54 113 _l
87 95 120 82 152 74 _c
184 65 216 61 248 61 _c
290 61 323 68 346 82 _c
368 96 380 117 380 144 _c
380 168 371 187 355 200 _c
339 213 303 226 247 238 _c
216 245 _l
160 257 119 275 95 299 _c
70 323 58 356 58 399 _c
58 450 76 490 112 518 _c
148 546 200 560 268 560 _c
301 560 332 557 362 552 _c
391 547 418 540 443 531 _c
}_e{_cl}_e}_d
/t{392 0 27 0 368 702 _sc
183 702 _m
183 547 _l
368 547 _l
368 477 _l
183 477 _l
183 180 _l
183 135 189 106 201 94 _c
213 81 238 75 276 75 _c
368 75 _l
368 0 _l
276 0 _l
206 0 158 13 132 39 _c
106 65 93 112 93 180 _c
93 477 _l
27 477 _l
27 547 _l
93 547 _l
93 702 _l
183 702 _l
_cl}_d
/u{634 0 85 -13 543 547 _sc
85 216 _m
85 547 _l
175 547 _l
175 219 _l
175 167 185 129 205 103 _c
225 77 255 64 296 64 _c
344 64 383 79 411 110 _c
439 141 453 183 453 237 _c
453 547 _l
543 547 _l
543 0 _l
453 0 _l
453 84 _l
431 50 405 26 377 10 _c
348 -5 315 -13 277 -13 _c
214 -13 166 6 134 45 _c
101 83 85 140 85 216 _c
_cl}_d
/v{592 0 30 0 562 547 _sc
30 547 _m
125 547 _l
296 88 _l
467 547 _l
562 547 _l
357 0 _l
235 0 _l
30 547 _l
_cl}_d
/y{592 0 30 -207 562 547 _sc
322 -50 _m
296 -114 271 -157 247 -177 _c
223 -197 191 -207 151 -207 _c
79 -207 _l
79 -132 _l
132 -132 _l
156 -132 175 -126 189 -114 _c
203 -102 218 -75 235 -31 _c
251 9 _l
30 547 _l
125 547 _l
296 119 _l
467 547 _l
562 547 _l
322 -50 _l
_cl}_d
end readonly def

/BuildGlyph
 {exch begin
 CharStrings exch
 2 copy known not{pop /.notdef}if
 true 3 1 roll get exec
 end}_d

/BuildChar {
 1 index /Encoding get exch get
 1 index /BuildGlyph get exec
}_d

FontName currentdict end definefont pop
end
%%EndProlog
mpldict begin
-54 180 translate
720 432 0 0 clipbox
gsave
0 0 m
720 0 l
720 432 l
0 432 l
cl
1.000 setgray
fill
grestore
gsave
50.4 43.2 m
561.6 43.2 l
561.6 388.8 l
50.4 388.8 l
cl
1.000 setgray
fill
grestore
1.500 setlinewidth
1 setlinejoin
0 setlinecap
[1 3] 0 setdash
0.000 0.000 1.000 setrgbcolor
gsave
511.2 345.6 50.4 43.2 clipbox
50.4 171.568 m
135.6 168.446 l
220.8 159.971 l
306 152.686 l
391.2 126.816 l
476.4 119.531 l
561.6 118.341 l
stroke
grestore
2.000 setlinewidth
[] 0 setdash
gsave
511.2 345.6 50.4 43.2 clipbox
/o {
gsave
newpath
translate
2.0 setlinewidth
1 setlinejoin
0 setlinecap
-4 0 m
4 0 l
0 -4 m
0 4 l
gsave
0.000 0.000 1.000 setrgbcolor
fill
grestore
stroke
grestore
} bind def
50.4 171.568 o
135.6 168.446 o
220.8 159.971 o
306 152.686 o
391.2 126.816 o
476.4 119.531 o
561.6 118.341 o
grestore
1.500 setlinewidth
[1 3] 0 setdash
0.000 0.500 0.000 setrgbcolor
gsave
511.2 345.6 50.4 43.2 clipbox
50.4 143.914 m
135.6 132.168 l
220.8 130.087 l
306 120.274 l
391.2 109.123 l
476.4 91.5795 l
561.6 30.9193 l
stroke
grestore
gsave
511.2 345.6 50.4 43.2 clipbox
/o {
gsave
newpath
translate
-0.49999 -0.49999 m
0.50001 -0.49999 l
0.50001 0.50001 l
-0.49999 0.50001 l
cl
0.000 0.500 0.000 setrgbcolor
fill
grestore
} bind def
50.4 143.914 o
135.6 132.168 o
220.8 130.087 o
306 120.274 o
391.2 109.123 o
476.4 91.5795 o
561.6 30.9193 o
grestore
1.000 0.000 0.000 setrgbcolor
gsave
511.2 345.6 50.4 43.2 clipbox
50.4 360.983 m
135.6 347.75 l
220.8 345.074 l
306 331.396 l
391.2 326.043 l
476.4 317.123 l
561.6 298.538 l
stroke
grestore
2.000 setlinewidth
[] 0 setdash
gsave
511.2 345.6 50.4 43.2 clipbox
/o {
gsave
newpath
translate
2.0 setlinewidth
1 setlinejoin
0 setlinecap
0 -2 m
0.530406 -2 1.03916 -1.78927 1.41421 -1.41421 c
1.78927 -1.03916 2 -0.530406 2 0 c
2 0.530406 1.78927 1.03916 1.41421 1.41421 c
1.03916 1.78927 0.530406 2 0 2 c
-0.530406 2 -1.03916 1.78927 -1.41421 1.41421 c
-1.78927 1.03916 -2 0.530406 -2 0 c
-2 -0.530406 -1.78927 -1.03916 -1.41421 -1.41421 c
-1.03916 -1.78927 -0.530406 -2 0 -2 c
cl
gsave
1.000 0.000 0.000 setrgbcolor
fill
grestore
stroke
grestore
} bind def
50.4 360.983 o
135.6 347.75 o
220.8 345.074 o
306 331.396 o
391.2 326.043 o
476.4 317.123 o
561.6 298.538 o
grestore
1.500 setlinewidth
[1 3] 0 setdash
0.000 0.750 0.750 setrgbcolor
gsave
511.2 345.6 50.4 43.2 clipbox
50.4 190.45 m
135.6 186.733 l
220.8 184.503 l
306 173.947 l
391.2 168.446 l
476.4 153.727 l
561.6 142.13 l
stroke
grestore
2.000 setlinewidth
[] 0 setdash
gsave
511.2 345.6 50.4 43.2 clipbox
/o {
gsave
newpath
translate
2.0 setlinewidth
1 setlinejoin
0 setlinecap
0 0 m
0 -4 l
0 0 m
3.2 2 l
0 0 m
-3.2 2 l
gsave
0.000 0.750 0.750 setrgbcolor
fill
grestore
stroke
grestore
} bind def
50.4 190.45 o
135.6 186.733 o
220.8 184.503 o
306 173.947 o
391.2 168.446 o
476.4 153.727 o
561.6 142.13 o
grestore
1.500 setlinewidth
2 setlinecap
0.750 0.000 0.750 setrgbcolor
gsave
511.2 345.6 50.4 43.2 clipbox
50.4 200.709 m
135.6 191.045 l
220.8 185.841 l
306 182.124 l
391.2 173.947 l
476.4 167.256 l
561.6 162.796 l
stroke
grestore
2.000 setlinewidth
0 setlinecap
gsave
511.2 345.6 50.4 43.2 clipbox
/o {
gsave
newpath
translate
2.0 setlinewidth
1 setlinejoin
0 setlinecap
-4 0 m
4 0 l
0 -4 m
0 4 l
gsave
0.750 0.000 0.750 setrgbcolor
fill
grestore
stroke
grestore
} bind def
50.4 200.709 o
135.6 191.045 o
220.8 185.841 o
306 182.124 o
391.2 173.947 o
476.4 167.256 o
561.6 162.796 o
grestore
1.500 setlinewidth
2 setlinecap
0.750 0.750 0.000 setrgbcolor
gsave
511.2 345.6 50.4 43.2 clipbox
50.4 313.703 m
135.6 308.499 l
220.8 299.579 l
306 287.685 l
391.2 283.968 l
476.4 275.791 l
561.6 275.791 l
stroke
grestore
gsave
511.2 345.6 50.4 43.2 clipbox
/o {
gsave
newpath
translate
-0.49999 -0.49999 m
0.50001 -0.49999 l
0.50001 0.50001 l
-0.49999 0.50001 l
cl
0.750 0.750 0.000 setrgbcolor
fill
grestore
} bind def
50.4 313.703 o
135.6 308.499 o
220.8 299.579 o
306 287.685 o
391.2 283.968 o
476.4 275.791 o
561.6 275.791 o
grestore
0.000 setgray
gsave
511.2 345.6 50.4 43.2 clipbox
50.4 332.288 m
135.6 324.111 l
220.8 318.163 l
306 310.73 l
391.2 305.526 l
476.4 298.092 l
561.6 281.738 l
stroke
grestore
2.000 setlinewidth
0 setlinecap
gsave
511.2 345.6 50.4 43.2 clipbox
/o {
gsave
newpath
translate
2.0 setlinewidth
1 setlinejoin
0 setlinecap
0 -2 m
0.530406 -2 1.03916 -1.78927 1.41421 -1.41421 c
1.78927 -1.03916 2 -0.530406 2 0 c
2 0.530406 1.78927 1.03916 1.41421 1.41421 c
1.03916 1.78927 0.530406 2 0 2 c
-0.530406 2 -1.03916 1.78927 -1.41421 1.41421 c
-1.78927 1.03916 -2 0.530406 -2 0 c
-2 -0.530406 -1.78927 -1.03916 -1.41421 -1.41421 c
-1.03916 -1.78927 -0.530406 -2 0 -2 c
cl
gsave
0.000 setgray
fill
grestore
stroke
grestore
} bind def
50.4 332.288 o
135.6 324.111 o
220.8 318.163 o
306 310.73 o
391.2 305.526 o
476.4 298.092 o
561.6 281.738 o
grestore
1.500 setlinewidth
2 setlinecap
0.000 0.000 1.000 setrgbcolor
gsave
511.2 345.6 50.4 43.2 clipbox
50.4 159.079 m
135.6 157.592 l
220.8 144.955 l
306 140.494 l
391.2 133.804 l
476.4 118.193 l
561.6 98.1213 l
stroke
grestore
2.000 setlinewidth
0 setlinecap
gsave
511.2 345.6 50.4 43.2 clipbox
/o {
gsave
newpath
translate
2.0 setlinewidth
1 setlinejoin
0 setlinecap
0 0 m
0 -4 l
0 0 m
3.2 2 l
0 0 m
-3.2 2 l
gsave
0.000 0.000 1.000 setrgbcolor
fill
grestore
stroke
grestore
} bind def
50.4 159.079 o
135.6 157.592 o
220.8 144.955 o
306 140.494 o
391.2 133.804 o
476.4 118.193 o
561.6 98.1213 o
grestore
1.500 setlinewidth
[3 5 1 5] 0 setdash
0.000 0.500 0.000 setrgbcolor
gsave
511.2 345.6 50.4 43.2 clipbox
50.4 182.124 m
135.6 159.079 l
220.8 156.849 l
306 146.441 l
391.2 137.521 l
476.4 115.219 l
561.6 100.351 l
stroke
grestore
2.000 setlinewidth
[] 0 setdash
gsave
511.2 345.6 50.4 43.2 clipbox
/o {
gsave
newpath
translate
2.0 setlinewidth
1 setlinejoin
0 setlinecap
-4 0 m
4 0 l
0 -4 m
0 4 l
gsave
0.000 0.500 0.000 setrgbcolor
fill
grestore
stroke
grestore
} bind def
50.4 182.124 o
135.6 159.079 o
220.8 156.849 o
306 146.441 o
391.2 137.521 o
476.4 115.219 o
561.6 100.351 o
grestore
1.500 setlinewidth
[3 5 1 5] 0 setdash
1.000 0.000 0.000 setrgbcolor
gsave
511.2 345.6 50.4 43.2 clipbox
50.4 353.846 m
135.6 346.412 l
220.8 333.775 l
306 292.145 l
391.2 252.894 l
476.4 178.853 l
561.6 49.9499 l
stroke
grestore
gsave
511.2 345.6 50.4 43.2 clipbox
/o {
gsave
newpath
translate
-0.49999 -0.49999 m
0.50001 -0.49999 l
0.50001 0.50001 l
-0.49999 0.50001 l
cl
1.000 0.000 0.000 setrgbcolor
fill
grestore
} bind def
50.4 353.846 o
135.6 346.412 o
220.8 333.775 o
306 292.145 o
391.2 252.894 o
476.4 178.853 o
561.6 49.9499 o
grestore
0.000 0.750 0.750 setrgbcolor
gsave
511.2 345.6 50.4 43.2 clipbox
50.4 215.576 m
135.6 212.603 l
220.8 207.399 l
306 188.071 l
391.2 179.894 l
476.4 173.203 l
561.6 168 l
stroke
grestore
2.000 setlinewidth
[] 0 setdash
gsave
511.2 345.6 50.4 43.2 clipbox
/o {
gsave
newpath
translate
2.0 setlinewidth
1 setlinejoin
0 setlinecap
0 -2 m
0.530406 -2 1.03916 -1.78927 1.41421 -1.41421 c
1.78927 -1.03916 2 -0.530406 2 0 c
2 0.530406 1.78927 1.03916 1.41421 1.41421 c
1.03916 1.78927 0.530406 2 0 2 c
-0.530406 2 -1.03916 1.78927 -1.41421 1.41421 c
-1.78927 1.03916 -2 0.530406 -2 0 c
-2 -0.530406 -1.78927 -1.03916 -1.41421 -1.41421 c
-1.03916 -1.78927 -0.530406 -2 0 -2 c
cl
gsave
0.000 0.750 0.750 setrgbcolor
fill
grestore
stroke
grestore
} bind def
50.4 215.576 o
135.6 212.603 o
220.8 207.399 o
306 188.071 o
391.2 179.894 o
476.4 173.203 o
561.6 168 o
grestore
1.500 setlinewidth
[3 5 1 5] 0 setdash
0.750 0.000 0.750 setrgbcolor
gsave
511.2 345.6 50.4 43.2 clipbox
50.4 215.576 m
135.6 212.603 l
220.8 207.399 l
306 188.071 l
391.2 179.894 l
476.4 173.203 l
561.6 168 l
stroke
grestore
2.000 setlinewidth
[] 0 setdash
gsave
511.2 345.6 50.4 43.2 clipbox
/o {
gsave
newpath
translate
2.0 setlinewidth
1 setlinejoin
0 setlinecap
0 0 m
0 -4 l
0 0 m
3.2 2 l
0 0 m
-3.2 2 l
gsave
0.750 0.000 0.750 setrgbcolor
fill
grestore
stroke
grestore
} bind def
50.4 215.576 o
135.6 212.603 o
220.8 207.399 o
306 188.071 o
391.2 179.894 o
476.4 173.203 o
561.6 168 o
grestore
1.000 setlinewidth
0 setlinejoin
2 setlinecap
0.000 setgray
gsave
561.6 43.2 m
561.6 388.8 l
stroke
grestore
gsave
50.4 43.2 m
561.6 43.2 l
stroke
grestore
gsave
50.4 388.8 m
561.6 388.8 l
stroke
grestore
gsave
50.4 43.2 m
50.4 388.8 l
stroke
grestore
0.500 setlinewidth
1 setlinejoin
0 setlinecap
gsave
/o {
gsave
newpath
translate
0.5 setlinewidth
1 setlinejoin
0 setlinecap
0 0 m
0 4 l
gsave
0.000 setgray
fill
grestore
stroke
grestore
} bind def
50.4 43.2 o
grestore
gsave
/o {
gsave
newpath
translate
0.5 setlinewidth
1 setlinejoin
0 setlinecap
0 0 m
0 -4 l
gsave
0.000 setgray
fill
grestore
stroke
grestore
} bind def
50.4 388.8 o
grestore
/BitstreamVeraSans-Roman findfont
10.000 scalefont
setfont
gsave
47.876563 31.606250 translate
0.000000 rotate
0.000000 0.000000 m /zero glyphshow
grestore
gsave
/o {
gsave
newpath
translate
0.5 setlinewidth
1 setlinejoin
0 setlinecap
0 0 m
0 4 l
gsave
0.000 setgray
fill
grestore
stroke
grestore
} bind def
135.6 43.2 o
grestore
gsave
/o {
gsave
newpath
translate
0.5 setlinewidth
1 setlinejoin
0 setlinecap
0 0 m
0 -4 l
gsave
0.000 setgray
fill
grestore
stroke
grestore
} bind def
135.6 388.8 o
grestore
gsave
133.428125 31.606250 translate
0.000000 rotate
0.000000 0.000000 m /one glyphshow
grestore
gsave
/o {
gsave
newpath
translate
0.5 setlinewidth
1 setlinejoin
0 setlinecap
0 0 m
0 4 l
gsave
0.000 setgray
fill
grestore
stroke
grestore
} bind def
220.8 43.2 o
grestore
gsave
/o {
gsave
newpath
translate
0.5 setlinewidth
1 setlinejoin
0 setlinecap
0 0 m
0 -4 l
gsave
0.000 setgray
fill
grestore
stroke
grestore
} bind def
220.8 388.8 o
grestore
gsave
218.487500 31.606250 translate
0.000000 rotate
0.000000 0.000000 m /two glyphshow
grestore
gsave
/o {
gsave
newpath
translate
0.5 setlinewidth
1 setlinejoin
0 setlinecap
0 0 m
0 4 l
gsave
0.000 setgray
fill
grestore
stroke
grestore
} bind def
306 43.2 o
grestore
gsave
/o {
gsave
newpath
translate
0.5 setlinewidth
1 setlinejoin
0 setlinecap
0 0 m
0 -4 l
gsave
0.000 setgray
fill
grestore
stroke
grestore
} bind def
306 388.8 o
grestore
gsave
303.601562 31.606250 translate
0.000000 rotate
0.000000 0.000000 m /three glyphshow
grestore
gsave
/o {
gsave
newpath
translate
0.5 setlinewidth
1 setlinejoin
0 setlinecap
0 0 m
0 4 l
gsave
0.000 setgray
fill
grestore
stroke
grestore
} bind def
391.2 43.2 o
grestore
gsave
/o {
gsave
newpath
translate
0.5 setlinewidth
1 setlinejoin
0 setlinecap
0 0 m
0 -4 l
gsave
0.000 setgray
fill
grestore
stroke
grestore
} bind def
391.2 388.8 o
grestore
gsave
388.543750 31.606250 translate
0.000000 rotate
0.000000 0.000000 m /four glyphshow
grestore
gsave
/o {
gsave
newpath
translate
0.5 setlinewidth
1 setlinejoin
0 setlinecap
0 0 m
0 4 l
gsave
0.000 setgray
fill
grestore
stroke
grestore
} bind def
476.4 43.2 o
grestore
gsave
/o {
gsave
newpath
translate
0.5 setlinewidth
1 setlinejoin
0 setlinecap
0 0 m
0 -4 l
gsave
0.000 setgray
fill
grestore
stroke
grestore
} bind def
476.4 388.8 o
grestore
gsave
474.040625 31.606250 translate
0.000000 rotate
0.000000 0.000000 m /five glyphshow
grestore
gsave
/o {
gsave
newpath
translate
0.5 setlinewidth
1 setlinejoin
0 setlinecap
0 0 m
0 4 l
gsave
0.000 setgray
fill
grestore
stroke
grestore
} bind def
561.6 43.2 o
grestore
gsave
/o {
gsave
newpath
translate
0.5 setlinewidth
1 setlinejoin
0 setlinecap
0 0 m
0 -4 l
gsave
0.000 setgray
fill
grestore
stroke
grestore
} bind def
561.6 388.8 o
grestore
gsave
559.084375 31.606250 translate
0.000000 rotate
0.000000 0.000000 m /six glyphshow
grestore
/BitstreamVeraSans-Roman findfont
14.000 scalefont
setfont
gsave
256.851562 13.887500 translate
0.000000 rotate
0.000000 0.000000 m /A glyphshow
8.702148 0.000000 m /v glyphshow
16.987305 0.000000 m /g glyphshow
25.874023 0.000000 m /period glyphshow
30.324219 0.000000 m /space glyphshow
34.774414 0.000000 m /A glyphshow
44.101562 0.000000 m /c glyphshow
51.798828 0.000000 m /c glyphshow
59.496094 0.000000 m /u glyphshow
68.369141 0.000000 m /r glyphshow
74.125000 0.000000 m /a glyphshow
82.704102 0.000000 m /c glyphshow
90.401367 0.000000 m /y glyphshow
grestore
gsave
/o {
gsave
newpath
translate
0.5 setlinewidth
1 setlinejoin
0 setlinecap
0 0 m
4 0 l
gsave
0.000 setgray
fill
grestore
stroke
grestore
} bind def
50.4 43.2 o
grestore
gsave
/o {
gsave
newpath
translate
0.5 setlinewidth
1 setlinejoin
0 setlinecap
0 0 m
-4 0 l
gsave
0.000 setgray
fill
grestore
stroke
grestore
} bind def
561.6 43.2 o
grestore
/BitstreamVeraSans-Roman findfont
10.000 scalefont
setfont
gsave
25.462500 40.442187 translate
0.000000 rotate
0.000000 0.000000 m /zero glyphshow
6.362305 0.000000 m /period glyphshow
9.541016 0.000000 m /eight glyphshow
15.903320 0.000000 m /eight glyphshow
grestore
gsave
/o {
gsave
newpath
translate
0.5 setlinewidth
1 setlinejoin
0 setlinecap
0 0 m
4 0 l
gsave
0.000 setgray
fill
grestore
stroke
grestore
} bind def
50.4 112.32 o
grestore
gsave
/o {
gsave
newpath
translate
0.5 setlinewidth
1 setlinejoin
0 setlinecap
0 0 m
-4 0 l
gsave
0.000 setgray
fill
grestore
stroke
grestore
} bind def
561.6 112.32 o
grestore
gsave
25.446875 109.562187 translate
0.000000 rotate
0.000000 0.000000 m /zero glyphshow
6.362305 0.000000 m /period glyphshow
9.541016 0.000000 m /nine glyphshow
15.903320 0.000000 m /zero glyphshow
grestore
gsave
/o {
gsave
newpath
translate
0.5 setlinewidth
1 setlinejoin
0 setlinecap
0 0 m
4 0 l
gsave
0.000 setgray
fill
grestore
stroke
grestore
} bind def
50.4 181.44 o
grestore
gsave
/o {
gsave
newpath
translate
0.5 setlinewidth
1 setlinejoin
0 setlinecap
0 0 m
-4 0 l
gsave
0.000 setgray
fill
grestore
stroke
grestore
} bind def
561.6 181.44 o
grestore
gsave
25.790625 178.682187 translate
0.000000 rotate
0.000000 0.000000 m /zero glyphshow
6.362305 0.000000 m /period glyphshow
9.541016 0.000000 m /nine glyphshow
15.903320 0.000000 m /two glyphshow
grestore
gsave
/o {
gsave
newpath
translate
0.5 setlinewidth
1 setlinejoin
0 setlinecap
0 0 m
4 0 l
gsave
0.000 setgray
fill
grestore
stroke
grestore
} bind def
50.4 250.56 o
grestore
gsave
/o {
gsave
newpath
translate
0.5 setlinewidth
1 setlinejoin
0 setlinecap
0 0 m
-4 0 l
gsave
0.000 setgray
fill
grestore
stroke
grestore
} bind def
561.6 250.56 o
grestore
gsave
25.353125 247.802187 translate
0.000000 rotate
0.000000 0.000000 m /zero glyphshow
6.362305 0.000000 m /period glyphshow
9.541016 0.000000 m /nine glyphshow
15.903320 0.000000 m /four glyphshow
grestore
gsave
/o {
gsave
newpath
translate
0.5 setlinewidth
1 setlinejoin
0 setlinecap
0 0 m
4 0 l
gsave
0.000 setgray
fill
grestore
stroke
grestore
} bind def
50.4 319.68 o
grestore
gsave
/o {
gsave
newpath
translate
0.5 setlinewidth
1 setlinejoin
0 setlinecap
0 0 m
-4 0 l
gsave
0.000 setgray
fill
grestore
stroke
grestore
} bind def
561.6 319.68 o
grestore
gsave
25.415625 316.922187 translate
0.000000 rotate
0.000000 0.000000 m /zero glyphshow
6.362305 0.000000 m /period glyphshow
9.541016 0.000000 m /nine glyphshow
15.903320 0.000000 m /six glyphshow
grestore
gsave
/o {
gsave
newpath
translate
0.5 setlinewidth
1 setlinejoin
0 setlinecap
0 0 m
4 0 l
gsave
0.000 setgray
fill
grestore
stroke
grestore
} bind def
50.4 388.8 o
grestore
gsave
/o {
gsave
newpath
translate
0.5 setlinewidth
1 setlinejoin
0 setlinecap
0 0 m
-4 0 l
gsave
0.000 setgray
fill
grestore
stroke
grestore
} bind def
561.6 388.8 o
grestore
gsave
25.462500 386.042187 translate
0.000000 rotate
0.000000 0.000000 m /zero glyphshow
6.362305 0.000000 m /period glyphshow
9.541016 0.000000 m /nine glyphshow
15.903320 0.000000 m /eight glyphshow
grestore
/BitstreamVeraSans-Roman findfont
14.000 scalefont
setfont
gsave
17.446875 134.296875 translate
90.000000 rotate
0.000000 0.000000 m /percent glyphshow
13.302734 0.000000 m /space glyphshow
17.752930 0.000000 m /o glyphshow
26.318359 0.000000 m /f glyphshow
31.247070 0.000000 m /space glyphshow
35.697266 0.000000 m /L glyphshow
43.497070 0.000000 m /a glyphshow
52.076172 0.000000 m /n glyphshow
60.949219 0.000000 m /b glyphshow
69.835938 0.000000 m /e glyphshow
78.449219 0.000000 m /l glyphshow
82.338867 0.000000 m /e glyphshow
90.952148 0.000000 m /d glyphshow
99.838867 0.000000 m /space glyphshow
104.289062 0.000000 m /S glyphshow
113.175781 0.000000 m /a glyphshow
121.754883 0.000000 m /m glyphshow
135.392578 0.000000 m /p glyphshow
144.279297 0.000000 m /l glyphshow
148.168945 0.000000 m /e glyphshow
156.782227 0.000000 m /s glyphshow
grestore
/BitstreamVeraSans-Roman findfont
12.000 scalefont
setfont
gsave
200.851562 393.800000 translate
0.000000 rotate
0.000000 0.000000 m /A glyphshow
7.458984 0.000000 m /v glyphshow
14.560547 0.000000 m /g glyphshow
22.177734 0.000000 m /period glyphshow
25.992188 0.000000 m /space glyphshow
29.806641 0.000000 m /C glyphshow
38.185547 0.000000 m /l glyphshow
41.519531 0.000000 m /a glyphshow
48.873047 0.000000 m /s glyphshow
55.125000 0.000000 m /s glyphshow
61.376953 0.000000 m /i glyphshow
64.710938 0.000000 m /f glyphshow
68.935547 0.000000 m /i glyphshow
72.269531 0.000000 m /c glyphshow
78.867188 0.000000 m /a glyphshow
86.220703 0.000000 m /t glyphshow
90.925781 0.000000 m /i glyphshow
94.259766 0.000000 m /o glyphshow
101.601562 0.000000 m /n glyphshow
109.207031 0.000000 m /space glyphshow
113.021484 0.000000 m /A glyphshow
120.980469 0.000000 m /c glyphshow
127.578125 0.000000 m /c glyphshow
134.175781 0.000000 m /u glyphshow
141.781250 0.000000 m /r glyphshow
146.714844 0.000000 m /a glyphshow
154.068359 0.000000 m /c glyphshow
160.666016 0.000000 m /y glyphshow
167.767578 0.000000 m /space glyphshow
171.582031 0.000000 m /hyphen glyphshow
175.912109 0.000000 m /space glyphshow
179.726562 0.000000 m /U glyphshow
188.509766 0.000000 m /S glyphshow
196.126953 0.000000 m /P glyphshow
203.363281 0.000000 m /S glyphshow
grestore
1.000 setlinewidth
0 setlinejoin
gsave
575.072 115.86 m
708.96 115.86 l
708.96 330.96 l
575.072 330.96 l
cl
gsave
1.000 setgray
fill
grestore
stroke
grestore
1.500 setlinewidth
1 setlinejoin
[1 3] 0 setdash
0.000 0.000 1.000 setrgbcolor
gsave
583.472 321.235 m
600.272 321.235 l
stroke
grestore
2.000 setlinewidth
[] 0 setdash
gsave
/o {
gsave
newpath
translate
2.0 setlinewidth
1 setlinejoin
0 setlinecap
-4 0 m
4 0 l
0 -4 m
0 4 l
gsave
0.000 0.000 1.000 setrgbcolor
fill
grestore
stroke
grestore
} bind def
583.472 321.235 o
600.272 321.235 o
grestore
0.000 setgray
gsave
613.472500 317.035000 translate
0.000000 rotate
0.000000 0.000000 m /S glyphshow
7.617188 0.000000 m /S glyphshow
15.234375 0.000000 m /O glyphshow
24.679688 0.000000 m /K glyphshow
32.548828 0.000000 m /M glyphshow
42.902344 0.000000 m /F glyphshow
49.804688 0.000000 m /hyphen glyphshow
54.134766 0.000000 m /L glyphshow
60.820312 0.000000 m /i glyphshow
64.154297 0.000000 m /n glyphshow
71.759766 0.000000 m /e glyphshow
79.142578 0.000000 m /a glyphshow
86.496094 0.000000 m /r glyphshow
grestore
1.500 setlinewidth
[1 3] 0 setdash
0.000 0.500 0.000 setrgbcolor
gsave
583.472 303.61 m
600.272 303.61 l
stroke
grestore
gsave
/o {
gsave
newpath
translate
-0.49999 -0.49999 m
0.50001 -0.49999 l
0.50001 0.50001 l
-0.49999 0.50001 l
cl
0.000 0.500 0.000 setrgbcolor
fill
grestore
} bind def
583.472 303.61 o
600.272 303.61 o
grestore
0.000 setgray
gsave
613.472500 299.410000 translate
0.000000 rotate
0.000000 0.000000 m /S glyphshow
7.617188 0.000000 m /S glyphshow
15.234375 0.000000 m /O glyphshow
24.679688 0.000000 m /K glyphshow
32.548828 0.000000 m /M glyphshow
42.902344 0.000000 m /F glyphshow
49.804688 0.000000 m /hyphen glyphshow
54.134766 0.000000 m /R glyphshow
62.472656 0.000000 m /B glyphshow
grestore
1.000 0.000 0.000 setrgbcolor
gsave
583.472 285.985 m
600.272 285.985 l
stroke
grestore
2.000 setlinewidth
[] 0 setdash
gsave
/o {
gsave
newpath
translate
2.0 setlinewidth
1 setlinejoin
0 setlinecap
0 -2 m
0.530406 -2 1.03916 -1.78927 1.41421 -1.41421 c
1.78927 -1.03916 2 -0.530406 2 0 c
2 0.530406 1.78927 1.03916 1.41421 1.41421 c
1.03916 1.78927 0.530406 2 0 2 c
-0.530406 2 -1.03916 1.78927 -1.41421 1.41421 c
-1.78927 1.03916 -2 0.530406 -2 0 c
-2 -0.530406 -1.78927 -1.03916 -1.41421 -1.41421 c
-1.03916 -1.78927 -0.530406 -2 0 -2 c
cl
gsave
1.000 0.000 0.000 setrgbcolor
fill
grestore
stroke
grestore
} bind def
583.472 285.985 o
600.272 285.985 o
grestore
0.000 setgray
gsave
613.472500 281.785000 translate
0.000000 rotate
0.000000 0.000000 m /S glyphshow
7.617188 0.000000 m /S glyphshow
15.234375 0.000000 m /O glyphshow
24.679688 0.000000 m /K glyphshow
32.548828 0.000000 m /M glyphshow
42.902344 0.000000 m /F glyphshow
49.804688 0.000000 m /hyphen glyphshow
54.134766 0.000000 m /R glyphshow
62.472656 0.000000 m /B glyphshow
70.705078 0.000000 m /hyphen glyphshow
75.035156 0.000000 m /D glyphshow
84.275391 0.000000 m /P glyphshow
grestore
1.500 setlinewidth
[1 3] 0 setdash
0.000 0.750 0.750 setrgbcolor
gsave
583.472 268.36 m
600.272 268.36 l
stroke
grestore
2.000 setlinewidth
[] 0 setdash
gsave
/o {
gsave
newpath
translate
2.0 setlinewidth
1 setlinejoin
0 setlinecap
0 0 m
0 -4 l
0 0 m
3.2 2 l
0 0 m
-3.2 2 l
gsave
0.000 0.750 0.750 setrgbcolor
fill
grestore
stroke
grestore
} bind def
583.472 268.36 o
600.272 268.36 o
grestore
0.000 setgray
gsave
613.472500 264.160000 translate
0.000000 rotate
0.000000 0.000000 m /S glyphshow
7.617188 0.000000 m /T glyphshow
14.947266 0.000000 m /W glyphshow
26.812500 0.000000 m /O glyphshow
36.257812 0.000000 m /M glyphshow
46.611328 0.000000 m /F glyphshow
grestore
1.500 setlinewidth
2 setlinecap
0.750 0.000 0.750 setrgbcolor
gsave
583.472 250.735 m
600.272 250.735 l
stroke
grestore
2.000 setlinewidth
0 setlinecap
gsave
/o {
gsave
newpath
translate
2.0 setlinewidth
1 setlinejoin
0 setlinecap
-4 0 m
4 0 l
0 -4 m
0 4 l
gsave
0.750 0.000 0.750 setrgbcolor
fill
grestore
stroke
grestore
} bind def
583.472 250.735 o
600.272 250.735 o
grestore
0.000 setgray
gsave
613.472500 246.535000 translate
0.000000 rotate
0.000000 0.000000 m /S glyphshow
7.617188 0.000000 m /D glyphshow
16.607422 0.000000 m /A glyphshow
grestore
1.500 setlinewidth
2 setlinecap
0.750 0.750 0.000 setrgbcolor
gsave
583.472 233.11 m
600.272 233.11 l
stroke
grestore
gsave
/o {
gsave
newpath
translate
-0.49999 -0.49999 m
0.50001 -0.49999 l
0.50001 0.50001 l
-0.49999 0.50001 l
cl
0.750 0.750 0.000 setrgbcolor
fill
grestore
} bind def
583.472 233.11 o
600.272 233.11 o
grestore
0.000 setgray
gsave
613.472500 228.910000 translate
0.000000 rotate
0.000000 0.000000 m /S glyphshow
7.617188 0.000000 m /V glyphshow
15.826172 0.000000 m /M glyphshow
26.179688 0.000000 m /hyphen glyphshow
30.509766 0.000000 m /L glyphshow
37.195312 0.000000 m /i glyphshow
40.529297 0.000000 m /n glyphshow
48.134766 0.000000 m /e glyphshow
55.517578 0.000000 m /a glyphshow
62.871094 0.000000 m /r glyphshow
grestore
gsave
583.472 215.485 m
600.272 215.485 l
stroke
grestore
2.000 setlinewidth
0 setlinecap
gsave
/o {
gsave
newpath
translate
2.0 setlinewidth
1 setlinejoin
0 setlinecap
0 -2 m
0.530406 -2 1.03916 -1.78927 1.41421 -1.41421 c
1.78927 -1.03916 2 -0.530406 2 0 c
2 0.530406 1.78927 1.03916 1.41421 1.41421 c
1.03916 1.78927 0.530406 2 0 2 c
-0.530406 2 -1.03916 1.78927 -1.41421 1.41421 c
-1.78927 1.03916 -2 0.530406 -2 0 c
-2 -0.530406 -1.78927 -1.03916 -1.41421 -1.41421 c
-1.03916 -1.78927 -0.530406 -2 0 -2 c
cl
gsave
0.000 setgray
fill
grestore
stroke
grestore
} bind def
583.472 215.485 o
600.272 215.485 o
grestore
gsave
613.472500 211.285000 translate
0.000000 rotate
0.000000 0.000000 m /S glyphshow
7.617188 0.000000 m /V glyphshow
15.826172 0.000000 m /M glyphshow
26.179688 0.000000 m /hyphen glyphshow
30.509766 0.000000 m /R glyphshow
38.847656 0.000000 m /B glyphshow
grestore
1.500 setlinewidth
2 setlinecap
0.000 0.000 1.000 setrgbcolor
gsave
583.472 197.86 m
600.272 197.86 l
stroke
grestore
2.000 setlinewidth
0 setlinecap
gsave
/o {
gsave
newpath
translate
2.0 setlinewidth
1 setlinejoin
0 setlinecap
0 0 m
0 -4 l
0 0 m
3.2 2 l
0 0 m
-3.2 2 l
gsave
0.000 0.000 1.000 setrgbcolor
fill
grestore
stroke
grestore
} bind def
583.472 197.86 o
600.272 197.86 o
grestore
0.000 setgray
gsave
613.472500 193.660000 translate
0.000000 rotate
0.000000 0.000000 m /L glyphshow
6.685547 0.000000 m /D glyphshow
15.675781 0.000000 m /A glyphshow
grestore
1.500 setlinewidth
[3 5 1 5] 0 setdash
0.000 0.500 0.000 setrgbcolor
gsave
583.472 180.235 m
600.272 180.235 l
stroke
grestore
2.000 setlinewidth
[] 0 setdash
gsave
/o {
gsave
newpath
translate
2.0 setlinewidth
1 setlinejoin
0 setlinecap
-4 0 m
4 0 l
0 -4 m
0 4 l
gsave
0.000 0.500 0.000 setrgbcolor
fill
grestore
stroke
grestore
} bind def
583.472 180.235 o
600.272 180.235 o
grestore
0.000 setgray
gsave
613.472500 176.035000 translate
0.000000 rotate
0.000000 0.000000 m /S glyphshow
7.617188 0.000000 m /R glyphshow
15.955078 0.000000 m /D glyphshow
24.945312 0.000000 m /A glyphshow
grestore
1.500 setlinewidth
[3 5 1 5] 0 setdash
1.000 0.000 0.000 setrgbcolor
gsave
583.472 162.61 m
600.272 162.61 l
stroke
grestore
gsave
/o {
gsave
newpath
translate
-0.49999 -0.49999 m
0.50001 -0.49999 l
0.50001 0.50001 l
-0.49999 0.50001 l
cl
1.000 0.000 0.000 setrgbcolor
fill
grestore
} bind def
583.472 162.61 o
600.272 162.61 o
grestore
0.000 setgray
gsave
613.472500 158.410000 translate
0.000000 rotate
0.000000 0.000000 m /L glyphshow
6.685547 0.000000 m /L glyphshow
13.371094 0.000000 m /E glyphshow
grestore
0.000 0.750 0.750 setrgbcolor
gsave
583.472 144.985 m
600.272 144.985 l
stroke
grestore
2.000 setlinewidth
[] 0 setdash
gsave
/o {
gsave
newpath
translate
2.0 setlinewidth
1 setlinejoin
0 setlinecap
0 -2 m
0.530406 -2 1.03916 -1.78927 1.41421 -1.41421 c
1.78927 -1.03916 2 -0.530406 2 0 c
2 0.530406 1.78927 1.03916 1.41421 1.41421 c
1.03916 1.78927 0.530406 2 0 2 c
-0.530406 2 -1.03916 1.78927 -1.41421 1.41421 c
-1.78927 1.03916 -2 0.530406 -2 0 c
-2 -0.530406 -1.78927 -1.03916 -1.41421 -1.41421 c
-1.03916 -1.78927 -0.530406 -2 0 -2 c
cl
gsave
0.000 0.750 0.750 setrgbcolor
fill
grestore
stroke
grestore
} bind def
583.472 144.985 o
600.272 144.985 o
grestore
0.000 setgray
gsave
613.472500 140.785000 translate
0.000000 rotate
0.000000 0.000000 m /P glyphshow
7.236328 0.000000 m /C glyphshow
15.615234 0.000000 m /A glyphshow
grestore
1.500 setlinewidth
[3 5 1 5] 0 setdash
0.750 0.000 0.750 setrgbcolor
gsave
583.472 127.36 m
600.272 127.36 l
stroke
grestore
2.000 setlinewidth
[] 0 setdash
gsave
/o {
gsave
newpath
translate
2.0 setlinewidth
1 setlinejoin
0 setlinecap
0 0 m
0 -4 l
0 0 m
3.2 2 l
0 0 m
-3.2 2 l
gsave
0.750 0.000 0.750 setrgbcolor
fill
grestore
stroke
grestore
} bind def
583.472 127.36 o
600.272 127.36 o
grestore
0.000 setgray
gsave
613.472500 123.160000 translate
0.000000 rotate
0.000000 0.000000 m /K glyphshow
7.869141 0.000000 m /P glyphshow
15.105469 0.000000 m /C glyphshow
23.484375 0.000000 m /A glyphshow
31.443359 0.000000 m /hyphen glyphshow
35.773438 0.000000 m /R glyphshow
44.111328 0.000000 m /B glyphshow
grestore

end
showpage
